%YAML 1.1
%TAG !u! tag:unity3d.com,2011:
--- !u!114 &9035562040100223903
MonoBehaviour:
  m_ObjectHideFlags: 0
  m_CorrespondingSourceObject: {fileID: 0}
  m_PrefabInstance: {fileID: 0}
  m_PrefabAsset: {fileID: 0}
  m_GameObject: {fileID: 599318461173953323}
  m_Enabled: 1
  m_EditorHideFlags: 0
  m_Script: {fileID: 11500000, guid: f09e2c0a85807754b85d2a721331d49e, type: 3}
  m_Name: 
  m_EditorClassIdentifier: 
  head: 0
  type: 3
  snake: {fileID: 0}
  materialChangeIndex: 0
  cover: {fileID: 517096185237618266}
  meshRenderer: {fileID: 599318462788435128}
  meshRendererBG: {fileID: 2030530028883910543}
--- !u!1001 &8771217923477082665
PrefabInstance:
  m_ObjectHideFlags: 0
  serializedVersion: 2
  m_Modification:
    m_TransformParent: {fileID: 0}
    m_Modifications:
    - target: {fileID: 1681608643516838395, guid: cb2db015ba4ed4f48a1dffa7511bcca6, type: 3}
      propertyPath: m_LocalPosition.y
      value: 0.6
      objectReference: {fileID: 0}
    - target: {fileID: 8207973932053196432, guid: cb2db015ba4ed4f48a1dffa7511bcca6, type: 3}
      propertyPath: m_Mesh
      value: 
      objectReference: {fileID: -2174622963318443954, guid: 92c458fffa9606742aa4c7e6cfd60497, type: 3}
    - target: {fileID: 8207973932053196433, guid: cb2db015ba4ed4f48a1dffa7511bcca6, type: 3}
      propertyPath: m_Materials.Array.size
      value: 2
      objectReference: {fileID: 0}
    - target: {fileID: 8207973932053196433, guid: cb2db015ba4ed4f48a1dffa7511bcca6, type: 3}
      propertyPath: m_Materials.Array.data[0]
      value: 
      objectReference: {fileID: 2100000, guid: 001de16703fc309439bbd129d66bc696, type: 2}
    - target: {fileID: 8207973932053196433, guid: cb2db015ba4ed4f48a1dffa7511bcca6, type: 3}
      propertyPath: m_Materials.Array.data[1]
      value: 
      objectReference: {fileID: 2100000, guid: 0d8f2074aa32f54469ff33f39b279809, type: 2}
    - target: {fileID: 8207973932053196435, guid: cb2db015ba4ed4f48a1dffa7511bcca6, type: 3}
      propertyPath: m_LocalScale.x
      value: 0.9
      objectReference: {fileID: 0}
    - target: {fileID: 8207973932053196435, guid: cb2db015ba4ed4f48a1dffa7511bcca6, type: 3}
      propertyPath: m_LocalScale.y
      value: 0.9
      objectReference: {fileID: 0}
    - target: {fileID: 8207973932053196435, guid: cb2db015ba4ed4f48a1dffa7511bcca6, type: 3}
      propertyPath: m_LocalScale.z
      value: 0.9
      objectReference: {fileID: 0}
    - target: {fileID: 8207973932053196435, guid: cb2db015ba4ed4f48a1dffa7511bcca6, type: 3}
      propertyPath: m_LocalPosition.x
      value: 0.17499995
      objectReference: {fileID: 0}
    - target: {fileID: 8207973932053196435, guid: cb2db015ba4ed4f48a1dffa7511bcca6, type: 3}
      propertyPath: m_LocalPosition.y
      value: 0.6
      objectReference: {fileID: 0}
    - target: {fileID: 8207973932053196435, guid: cb2db015ba4ed4f48a1dffa7511bcca6, type: 3}
      propertyPath: m_LocalPosition.z
      value: 0.175
      objectReference: {fileID: 0}
    - target: {fileID: 8207973932053196435, guid: cb2db015ba4ed4f48a1dffa7511bcca6, type: 3}
      propertyPath: m_LocalRotation.w
      value: 0.8535535
      objectReference: {fileID: 0}
    - target: {fileID: 8207973932053196435, guid: cb2db015ba4ed4f48a1dffa7511bcca6, type: 3}
      propertyPath: m_LocalRotation.x
      value: -0.35355338
      objectReference: {fileID: 0}
    - target: {fileID: 8207973932053196435, guid: cb2db015ba4ed4f48a1dffa7511bcca6, type: 3}
      propertyPath: m_LocalRotation.y
      value: 0.35355338
      objectReference: {fileID: 0}
    - target: {fileID: 8207973932053196435, guid: cb2db015ba4ed4f48a1dffa7511bcca6, type: 3}
      propertyPath: m_LocalRotation.z
      value: 0.1464466
      objectReference: {fileID: 0}
    - target: {fileID: 8207973932053196435, guid: cb2db015ba4ed4f48a1dffa7511bcca6, type: 3}
      propertyPath: m_LocalEulerAnglesHint.x
      value: -45
      objectReference: {fileID: 0}
    - target: {fileID: 8207973932053196435, guid: cb2db015ba4ed4f48a1dffa7511bcca6, type: 3}
      propertyPath: m_LocalEulerAnglesHint.y
      value: 45
      objectReference: {fileID: 0}
    - target: {fileID: 8207973932595110145, guid: cb2db015ba4ed4f48a1dffa7511bcca6, type: 3}
      propertyPath: m_RootOrder
      value: 0
      objectReference: {fileID: 0}
    - target: {fileID: 8207973932595110145, guid: cb2db015ba4ed4f48a1dffa7511bcca6, type: 3}
      propertyPath: m_LocalPosition.x
      value: 0
      objectReference: {fileID: 0}
    - target: {fileID: 8207973932595110145, guid: cb2db015ba4ed4f48a1dffa7511bcca6, type: 3}
      propertyPath: m_LocalPosition.y
      value: 0
      objectReference: {fileID: 0}
    - target: {fileID: 8207973932595110145, guid: cb2db015ba4ed4f48a1dffa7511bcca6, type: 3}
      propertyPath: m_LocalPosition.z
      value: 0
      objectReference: {fileID: 0}
    - target: {fileID: 8207973932595110145, guid: cb2db015ba4ed4f48a1dffa7511bcca6, type: 3}
      propertyPath: m_LocalRotation.w
      value: 1
      objectReference: {fileID: 0}
    - target: {fileID: 8207973932595110145, guid: cb2db015ba4ed4f48a1dffa7511bcca6, type: 3}
      propertyPath: m_LocalRotation.x
      value: 0
      objectReference: {fileID: 0}
    - target: {fileID: 8207973932595110145, guid: cb2db015ba4ed4f48a1dffa7511bcca6, type: 3}
      propertyPath: m_LocalRotation.y
      value: 0
      objectReference: {fileID: 0}
    - target: {fileID: 8207973932595110145, guid: cb2db015ba4ed4f48a1dffa7511bcca6, type: 3}
      propertyPath: m_LocalRotation.z
      value: 0
      objectReference: {fileID: 0}
    - target: {fileID: 8207973932595110145, guid: cb2db015ba4ed4f48a1dffa7511bcca6, type: 3}
      propertyPath: m_LocalEulerAnglesHint.x
      value: 0
      objectReference: {fileID: 0}
    - target: {fileID: 8207973932595110145, guid: cb2db015ba4ed4f48a1dffa7511bcca6, type: 3}
      propertyPath: m_LocalEulerAnglesHint.y
      value: 0
      objectReference: {fileID: 0}
    - target: {fileID: 8207973932595110145, guid: cb2db015ba4ed4f48a1dffa7511bcca6, type: 3}
      propertyPath: m_LocalEulerAnglesHint.z
      value: 0
      objectReference: {fileID: 0}
    - target: {fileID: 8207973932595110146, guid: cb2db015ba4ed4f48a1dffa7511bcca6, type: 3}
      propertyPath: m_Name
      value: block_battering_ram
      objectReference: {fileID: 0}
    - target: {fileID: 8493622510071871177, guid: cb2db015ba4ed4f48a1dffa7511bcca6, type: 3}
      propertyPath: m_LocalPosition.y
      value: 0.05
      objectReference: {fileID: 0}
    m_RemovedComponents: []
  m_SourcePrefab: {fileID: 100100000, guid: cb2db015ba4ed4f48a1dffa7511bcca6, type: 3}
--- !u!1 &599318461173953323 stripped
GameObject:
  m_CorrespondingSourceObject: {fileID: 8207973932595110146, guid: cb2db015ba4ed4f48a1dffa7511bcca6, type: 3}
  m_PrefabInstance: {fileID: 8771217923477082665}
  m_PrefabAsset: {fileID: 0}
--- !u!23 &599318462788435128 stripped
MeshRenderer:
  m_CorrespondingSourceObject: {fileID: 8207973932053196433, guid: cb2db015ba4ed4f48a1dffa7511bcca6, type: 3}
  m_PrefabInstance: {fileID: 8771217923477082665}
  m_PrefabAsset: {fileID: 0}
--- !u!1 &517096185237618266 stripped
GameObject:
  m_CorrespondingSourceObject: {fileID: 9121117487208344691, guid: cb2db015ba4ed4f48a1dffa7511bcca6, type: 3}
  m_PrefabInstance: {fileID: 8771217923477082665}
  m_PrefabAsset: {fileID: 0}
--- !u!23 &2030530028883910543 stripped
MeshRenderer:
  m_CorrespondingSourceObject: {fileID: 7319550573702253990, guid: cb2db015ba4ed4f48a1dffa7511bcca6, type: 3}
  m_PrefabInstance: {fileID: 8771217923477082665}
  m_PrefabAsset: {fileID: 0}
